{
   "abstract" : "A software development data management framework",
   "author" : [
      "Boris Baldassari"
   ],
   "dynamic_config" : 0,
   "generated_by" : "Module::Build version 0.422",
   "license" : [
      "unknown"
   ],
   "meta-spec" : {
      "url" : "http://search.cpan.org/perldoc?CPAN::Meta::Spec",
      "version" : "2"
   },
   "name" : "Alambic",
   "no_index" : {
      "file" : [
         "README.pod"
      ]
   },
   "prereqs" : {
      "configure" : {
         "requires" : {
            "Module::Build" : "0.38"
         }
      },
      "runtime" : {
         "requires" : {
            "Crypt::PBKDF2" : "0",
            "Date::Parse" : "0",
            "DateTime" : "0",
            "File::Basename" : "0",
            "File::Copy" : "0",
            "File::Path" : "0",
            "File::ShareDir" : "1.00",
            "File::chdir" : "0",
            "File::stat" : "0",
            "Git::Repository" : "0",
            "IO::Socket::SSL" : "0",
            "JIRA::REST" : "0",
            "List::MoreUtils" : "0",
            "List::Util" : "0",
            "Minion" : "0",
            "Mojo::JSON" : "0",
            "Mojo::Pg" : "0",
            "Mojo::UserAgent" : "0",
            "Mojolicious" : "7.28",
            "Mojolicious::Plugin::Mail" : "0",
            "Net::IDN::Encode" : "0",
            "Time::localtime" : "0",
            "XML::LibXML" : "0",
            "perl" : "v5.24.0"
         }
      },
      "test" : {
         "requires" : {
            "Test::More" : "0"
         }
      }
   },
   "release_status" : "stable",
   "resources" : {
      "bugtracker" : {
         "web" : "http://github.com/jberger/Galileo/issues"
      },
      "repository" : {
         "url" : "http://github.com/jberger/Galileo"
      }
   },
   "version" : "3.3",
   "x_serialization_backend" : "JSON::PP version 2.27400"
}
